[gd_scene load_steps=3 format=2]

[ext_resource path="res://Models/room1.obj" type="ArrayMesh" id=1]

[sub_resource type="BoxShape" id=1]
extents = Vector3( 25, 1.004, 25 )

[node name="room1" type="MeshInstance"]
transform = Transform( 0.5, 0, 0, 0, 0.5, 0, 0, 0, 0.5, 0, 0, 0 )
mesh = ExtResource( 1 )
material/0 = null
material/1 = null
material/2 = null
material/3 = null
material/4 = null
material/5 = null
material/6 = null
material/7 = null

[node name="StaticBody" type="StaticBody" parent="."]
transform = Transform( 2, 0, 0, 0, 2, 0, 0, 0, 2, 0, 0, 0 )

[node name="CollisionShape" type="CollisionShape" parent="StaticBody"]
transform = Transform( 1, 0, 0, 0, 0.5, 0, 0, 0, 1, 0, 0, 0 )
shape = SubResource( 1 )
